<?xml version="1.0" encoding="utf-8"?>
<!-- Generator: Adobe Illustrator 16.0.4, SVG Export Plug-In . SVG Version: 6.00 Build 0)  -->
<!DOCTYPE svg PUBLIC "-//W3C//DTD SVG 1.1//EN" "http://www.w3.org/Graphics/SVG/1.1/DTD/svg11.dtd">
<svg version="1.1" id="Layer_1" xmlns="http://www.w3.org/2000/svg" xmlns:xlink="http://www.w3.org/1999/xlink" x="0px" y="0px"
	 width="566.824px" height="196.19px" viewBox="0 0 566.824 196.19" enable-background="new 0 0 566.824 196.19"
	 xml:space="preserve">
<path fill="#ED1C24" d="M89.225,79.977c3.964,9.507,19.075,9.883,26.959,5.663c10.572-5.663,8.816-19.958,6.056-29.611
	c7.686,2.673,18.185,7.584,19.702,16.45c1.506,8.802-3.958,17.416-7.5,25.071c-3.163,6.833-7.136,18.851,1.5,23.787
	c3.644,1.501,6.645-2.954,9.125-6.857c2.475-3.899,4.845-8.044,6.466-12.375c19.888,93.757-176.831,96.342-148.792-2.915
	c2.02-7.163,4.933-14.062,8.296-20.693c-0.77,9.27,0.21,19.251,6.225,26.668c5.146,6.354,15.887,9.708,18.383-0.759
	c2.239-9.409-3.487-19.65-4.277-28.93c-0.99-11.68-1.285-21.645,7.926-28.287c0.643,5.144,2.013,9.122,3.474,11.142
	c2.524,3.492,6.062,6.88,10.57,7.188c8.625,0.594,16.704-6.033,20.379-13.454c1.695-3.432,2.299-7.54,1.207-11.25
	c-1.408-4.772-5.53-6.15-8.697-9.496c-3.1-3.273-5.371-6.328-6.271-10.841c-0.929-5.263,1.599-10.347,4.737-14.398
	C66.417,3.864,68.501,1.98,70.48,0c-1.208,8.458-3.389,19.733,6.101,24.69c7.635,3.984,16.314-0.744,24.037,3.469
	c9.916,5.412,2.145,19.143-1.75,25.891C94.4,61.783,84.858,69.49,89.225,79.977z"/>
<g>
	<path fill="#FFFFFF" d="M213.369,142.193c0,12.877-2.453,19.991-7.236,24.651c-4.415,4.17-10.792,6.624-19.5,6.624
		c-5.641,0-10.67-0.982-14.962-2.821l2.944-12.388c2.943,1.472,6.746,2.575,11.406,2.575c8.094,0,11.283-5.396,11.283-14.595v-3.679
		h-0.245c-2.085,3.803-6.254,6.01-10.793,6.01c-13.368,0-18.641-14.717-18.641-29.068c0-19.991,9.075-31.641,20.112-31.641
		c4.784,0,8.708,2.575,11.038,7.235h0.247l0.857-6.131h14.104c-0.368,5.518-0.613,11.773-0.613,19.009V142.193z M197.303,110.796
		c0-1.593-0.245-3.189-0.613-4.415c-0.737-2.577-2.454-4.906-5.151-4.906c-5.765,0-8.096,7.849-8.096,17.66
		c0,11.162,3.189,16.805,7.849,16.805c2.085,0,4.048-1.106,5.275-4.293c0.613-1.35,0.735-3.188,0.735-4.784V110.796z"/>
	<path fill="#FFFFFF" d="M227.718,106.994c0-5.886-0.246-12.385-0.491-18.027h13.859l0.858,8.707h0.491
		c2.576-6.377,7.481-9.811,11.774-9.811c1.717,0,2.576,0.122,3.434,0.368v15.82c-0.981-0.122-2.084-0.122-3.434-0.122
		c-3.434,0-7.973,2.329-9.689,8.462c-0.491,1.348-0.735,3.557-0.735,6.008v30.539h-16.067V106.994z"/>
	<path fill="#FFFFFF" d="M283.151,73.146c0.122,5.149-3.557,8.707-8.463,8.707c-4.414,0-8.094-3.557-7.972-8.707
		c-0.123-5.399,3.802-8.832,8.218-8.832C279.595,64.314,283.151,67.747,283.151,73.146z M267.085,148.939V88.966h16.066v59.973
		H267.085z"/>
	<path fill="#FFFFFF" d="M297.747,64.069h16.065v84.87h-16.065V64.069z"/>
	<path fill="#FFFFFF" d="M328.651,64.069h16.067v84.87h-16.067V64.069z"/>
	<path fill="#FFFFFF" d="M389.482,147.468c-2.086,1.226-5.642,2.207-9.813,2.207c-12.999,0-21.708-10.424-21.708-30.047
		c0-17.048,8.585-30.908,23.427-30.908c3.188,0,6.623,0.86,8.339,1.84l-1.84,7.727c-1.226-0.614-3.679-1.593-6.746-1.593
		c-9.566,0-13.734,11.282-13.734,22.934c0,13.859,5.274,22.198,13.981,22.198c2.453,0,4.66-0.49,6.745-1.594L389.482,147.468z"/>
	<path fill="#FFFFFF" d="M432.526,135.448c0,4.539,0.125,9.689,0.614,13.491h-8.464l-0.613-6.256h-0.367
		c-2.575,4.539-6.744,7.238-11.896,7.238c-7.85,0-13.981-6.624-13.981-16.926c0-14.963,11.896-21.462,25.266-21.584v-1.84
		c0-7.973-2.086-13.37-9.445-13.37c-3.679,0-6.99,1.104-9.811,3.067l-2.086-6.624c2.576-1.839,7.972-3.925,13.86-3.925
		c11.895,0,16.923,7.728,16.923,20.973V135.448z M423.328,118.156c-4.903,0-16.311,0.979-16.311,13.859
		c0,7.849,3.926,10.546,7.235,10.546c4.172,0,7.604-3.064,8.707-8.953c0.246-1.104,0.368-2.329,0.368-3.435V118.156z"/>
	<path fill="#FFFFFF" d="M449.207,104.91c0-6.991-0.367-10.548-0.492-15.33h8.218l0.491,7.357h0.244
		c2.575-4.783,7.114-8.218,13.37-8.218c5.518,0,10.178,2.576,12.386,9.077h0.245c1.596-2.945,3.679-5.396,5.888-6.746
		c2.329-1.595,5.15-2.332,8.218-2.332c7.971,0,14.227,5.764,14.227,20.973v39.246h-9.322v-37.161c0-7.727-1.104-15.208-8.339-15.208
		c-3.926,0-7.36,3.313-8.707,8.953c-0.247,1.472-0.368,3.313-0.368,5.274v38.143h-9.322v-38.878c0-6.5-1.104-13.491-8.218-13.491
		c-3.925,0-7.726,3.313-8.828,9.689c-0.247,1.473-0.368,3.188-0.368,5.028v37.653h-9.321V104.91z"/>
	<path fill="#FFFFFF" d="M528.436,108.1c0-9.077-0.368-14.352-0.489-18.52h8.339l0.491,7.603h0.243
		c3.314-6.256,7.975-8.463,12.635-8.463c10.424,0,17.17,10.917,17.17,30.416c0,22.077-9.077,30.786-18.397,30.786
		c-5.643,0-8.831-3.557-10.425-6.87h-0.246v29.436h-9.32V108.1z M537.756,127.231c0,1.717,0.125,3.435,0.493,4.906
		c1.839,8.463,6.131,9.935,8.705,9.935c7.85,0,10.425-10.792,10.425-22.69c0-12.264-2.943-22.566-10.546-22.566
		c-4.292,0-8.218,5.274-8.709,10.671c-0.243,1.349-0.368,2.943-0.368,4.539V127.231z"/>
</g>
<path fill-rule="evenodd" clip-rule="evenodd" fill="#FFFFFF" d="M113.015,178.225c3.498,4.261,7.708,8.393,11.826,12.875
	c1.203,1.313,3.14,4.158,0.526,4.996c-2.107,0.674-4.091-2.481-4.994-3.418c-4.261-4.423-8.27-8.76-12.352-12.877
	c-16.186,5.881-43.53,5.343-60.184,0.263c-2.47,1.993-4.945,4.821-8.146,8.41c-2.24,2.511-6.514,9.727-9.987,6.57
	c0.418-4.04,3.813-6.256,6.044-8.673c2.326-2.52,4.497-5.101,6.833-7.62c-12.029-4.09-23.02-8.093-32.588-15.771
	c-1.694-1.358-8.721-6.904-4.731-8.67c1.884-0.836,6.011,3.865,7.097,4.731c14.963,11.926,38.336,20.498,64.651,20.498
	c17.275,0,29.004-2.858,40.736-8.149c12.077-5.445,19.122-12.439,27.857-20.761c0.799-0.759,3.029-1.452,3.68,0.526
	c0.817,2.487-5.509,7.986-6.833,9.199C133.583,168.47,125.003,173.659,113.015,178.225z"/>
</svg>
